Tidy work in Tidyverse
…
tibble is one of the unifying features of tidyverse, 

it is a better data.frame realization, 

objects data.frame can be coerced to tibble using as_tibble()

Convert data.frame to tibble

as_tibble(iris)

# A tibble: 150 × 5
   Sepal.Length Sepal.Width Petal.Length Petal.Width Species
          <dbl>       <dbl>        <dbl>       <dbl> <fct>  
 1          5.1         3.5          1.4         0.2 setosa 
 2          4.9         3            1.4         0.2 setosa 
 3          4.7         3.2          1.3         0.2 setosa 
 4          4.6         3.1          1.5         0.2 setosa 
 5          5           3.6          1.4         0.2 setosa 
 6          5.4         3.9          1.7         0.4 setosa 
 7          4.6         3.4          1.4         0.3 setosa 
 8          5           3.4          1.5         0.2 setosa 
 9          4.4         2.9          1.4         0.2 setosa 
10          4.9         3.1          1.5         0.1 setosa 
# ℹ 140 more rows

Tibbles from scratch with tibble

  tibble(
    x = 1,          # recycling
    y = runif(50), 
    z = x + y^2,
    outcome = rnorm(50)
  )

# A tibble: 50 × 4
       x      y     z outcome
   <dbl>  <dbl> <dbl>   <dbl>
 1     1 0.100   1.01  1.74  
 2     1 0.917   1.84 -0.378 
 3     1 0.299   1.09  1.14  
 4     1 0.915   1.84 -0.870 
 5     1 0.0273  1.00  2.69  
 6     1 0.863   1.74 -0.0911
 7     1 0.783   1.61  0.540 
 8     1 0.901   1.81 -1.35  
 9     1 0.321   1.10  1.40  
10     1 0.0589  1.00  0.726 
# ℹ 40 more rows

More on Tibbles

When you print a tibble:

all columns that fit the screen are shown,

only the first 10 rows are shown,

data type for each column is shown.

as_tibble(cars)

# A tibble: 50 × 2
   speed  dist
   <dbl> <dbl>
 1     4     2
 2     4    10
 3     7     4
 4     7    22
 5     8    16
 6     9    10
 7    10    18
 8    10    26
 9    10    34
10    11    17
# ℹ 40 more rows
…
